…
We create confidence intervals for directors

#we use only useful data
director_returns_confidence_interval<-director10_movies %>%
#thanks to previously filtering data we can group_by director to get useful output for both directors  
  group_by(director) %>%
  summarise(movies=n(),
            mean = mean(return_on_budget,na.rm=TRUE),
            sd=sd(return_on_budget, na.rm=TRUE),
            lower=mean-abs(qt(0.025,(movies-1)))*(sd/sqrt(movies)),
            higher=mean+abs(qt(0.025,(movies-1)))*(sd/sqrt(movies)))

director_returns_confidence_interval

## # A tibble: 22 x 6
##    director          movies    mean     sd  lower higher
##    <chr>              <int>   <dbl>  <dbl>  <dbl>  <dbl>
##  1 Barry Levinson        13  1.18    2.90  -0.574  2.93 
##  2 Clint Eastwood        19  1.30    2.14   0.270  2.33 
##  3 David Fincher         10  0.535   0.931 -0.131  1.20 
##  4 Kevin Smith           10  6.52   14.8   -4.06  17.1  
##  5 Martin Scorsese       16  0.122   0.964 -0.392  0.636
##  6 Michael Bay           12  0.629   0.777  0.135  1.12 
##  7 Oliver Stone          10  0.529   1.40  -0.473  1.53 
##  8 Renny Harlin          14  0.146   1.76  -0.873  1.16 
##  9 Richard Linklater     10  6.31   16.3   -5.33  17.9  
## 10 Ridley Scott          14 -0.0388  0.580 -0.374  0.296
## # ... with 12 more rows
…
